{
  "asset": {
    "type": "application/si-dpo-3d.document+json",
    "version": "1.0",
    "generator": "Cook",
    "copyright": "(c) University of Kentucky. All rights reserved."
  },
  "scene": 0,
  "scenes": [
    {
      "name": "Scene",
      "units": "cm",
      "nodes": [0],
      "meta": 0
    }
  ],
  "nodes": [
    {
      "name": "PHerc0089Cr001_8f3449e9",
      "model": 0
    }
  ],
  "models": [
    {
      "units": "cm",
      "derivatives": [
        {
          "usage": "Web3D",
          "quality": "High",
          "assets": [
            {
              "uri": "https://infoforest.cs.uky.edu/voyager/data/glb/PHerc0089Cr001_8f3449e9_d.glb",
              "type": "Model"
            }
          ]
        }
      ]
    }
  ],
  "metas": [
        {
          "collection": {
            "title": "P.Herc. 89, Cr. 01",
            "titles": {
              "EN": "P.Herc. 89, Cr. 01"
            }
          }
        }
    ]
}
